inputOutputData1Bit/inputOutput1Bit1Hz.csv

#Digilent WaveForms Oscilloscope Acquisition
#Device Name: Discovery2
#Serial Number: SN:210321B2E135
#Date Time: 2023-11-01 14:00:02.550
#Sample rate: 4000Hz
#Samples: 8192
#Trigger: Source: Channel 2 Type: Edge Condition: Rising Level: 1.83125 V Hyst.: Auto HoldOff: 100 ns
#Channel 1: Range: 2 V/div Offset: 0 V Attenuation: 1 X
#Channel 2: Range: 2 V/div Offset: 0 V Attenuation: 1 X
#Wavegen Channel 1: Running
#Mode: Simple
#Type: Sine
#Frequency: 1 Hz
#Period: 1 s
#Amplitude: 2.5 V
#Offset: 2.5 V
#Symmetry: 50 %
#Phase: 0 °
#Wavegen Channel 2: Running
#Mode: Simple
#Type: DC
#Offset: 5 V

Time (s),Channel 1 (V),Channel 2 (V)
-0.923875,4.839281805493975,3.016802510172569
-0.9236249999999999,4.839281805493975,3.020484487832612
-0.9233750000000001,4.839281805493975,3.02416646549265
-0.923125,4.842948657997113,3.027848443152693
-0.9228749999999999,4.842948657997112,3.031530420812738
-0.922625,4.839281805493975,3.038894376132817
-0.9223749999999999,4.842948657997113,3.038894376132817
-0.9221250000000001,4.842948657997113,3.046258331452897
-0.921875,4.842948657997113,3.049940309112942
-0.9216249999999999,4.842948657997113,3.053622286772985
-0.9213750000000001,4.842948657997113,3.057304264433023
-0.921125,4.842948657997113,3.060986242093066
-0.9208749999999999,4.842948657997113,3.064668219753109
-0.920625,4.842948657997113,3.068350197413149
-0.9203749999999999,4.842948657997113,3.07203217507319
-0.9201250000000001,4.842948657997113,3.07571415273323
-0.919875,4.842948657997113,3.079396130393273
-0.9196249999999999,4.842948657997113,3.083078108053317
-0.9193750000000001,4.842948657997113,3.086760085713354
-0.919125,4.842948657997113,3.090442063373398
-0.9188749999999999,4.842948657997112,3.094124041033441
-0.918625,4.839281805493975,3.09780601869348
-0.9183749999999999,4.842948657997113,3.101487996353522
-0.9181250000000001,4.842948657997113,3.105169974013561
-0.917875,4.842948657997113,3.108851951673605
-0.9176249999999999,4.842948657997113,3.112533929333648
-0.9173750000000001,4.842948657997113,3.116215906993686
-0.917125,4.842948657997113,3.119897884653729
-0.9168749999999999,4.842948657997113,3.123579862313772
-0.916625,4.842948657997113,3.127261839973812
-0.9163749999999999,4.842948657997113,3.130943817633853
-0.9161250000000001,4.839281805493977,3.134625795293893
-0.915875,4.842948657997113,3.141989750613978
-0.9156249999999999,4.842948657997112,3.145671728274021
-0.915375,4.839281805493977,3.149353705934059
-0.915125,4.839281805493975,3.153035683594102
-0.9148749999999999,4.839281805493975,3.153035683594105
-0.914625,4.839281805493975,3.160399638914185
-0.9143749999999999,4.842948657997113,3.164081616574226
-0.9141250000000001,4.842948657997113,3.167763594234266
-0.913875,4.842948657997113,3.171445571894309
-0.9136249999999999,4.839281805493977,3.175127549554353
-0.913375,4.842948657997112,3.17880952721439
-0.913125,4.842948657997113,3.182491504874434
-0.9128749999999999,4.839281805493977,3.186173482534477
-0.912625,4.842948657997113,3.189855460194516
-0.9123749999999999,4.842948657997113,3.193537437854558
-0.9121250000000001,4.842948657997113,3.197219415514597
-0.911875,4.842948657997113,3.200901393174641
-0.9116249999999999,4.839281805493977,3.204583370834684
-0.911375,4.842948657997112,3.208265348494722
-0.911125,4.839281805493975,3.211947326154765
-0.9108749999999999,4.839281805493977,3.215629303814808
-0.910625,4.842948657997113,3.219311281474848
-0.9103749999999999,4.842948657997113,3.222993259134889
-0.9101250000000001,4.842948657997113,3.226675236794929
-0.909875,4.842948657997113,3.230357214454972
-0.9096249999999999,4.839281805493975,3.234039192115016
-0.909375,4.839281805493975,3.237721169775053
-0.909125,4.839281805493975,3.241403147435097
-0.9088749999999999,4.839281805493977,3.24508512509514
-0.908625,4.842948657997113,3.248767102755179
-0.9083749999999999,4.842948657997113,3.252449080415221
-0.9081250000000001,4.842948657997113,3.25613105807526
-0.907875,4.842948657997113,3.259813035735304
-0.9076249999999999,4.842948657997113,3.263495013395347
-0.907375,4.842948657997113,3.267176991055385
-0.907125,4.842948657997113,3.270858968715428
-0.9068749999999999,4.842948657997113,3.274540946375471
-0.906625,4.842948657997113,3.278222924035511
-0.9063749999999999,4.839281805493975,3.285586879355594
-0.9061250000000001,4.842948657997112,3.289268857015633
-0.905875,4.842948657997113,3.292950834675677
-0.9056249999999999,4.842948657997113,3.29663281233572
-0.905375,4.842948657997113,3.300314789995758
-0.905125,4.842948657997113,3.303996767655801
-0.9048749999999999,4.842948657997113,3.307678745315844
-0.904625,4.842948657997113,3.311360722975884
-0.9043749999999999,4.842948657997113,3.315042700635925
-0.9041250000000001,4.842948657997113,3.318724678295965
-0.903875,4.842948657997113,3.322406655956008
-0.9036249999999999,4.842948657997113,3.326088633616052
-0.903375,4.842948657997113,3.329770611276089
-0.903125,4.842948657997113,3.333452588936133
-0.9028749999999999,4.842948657997113,3.337134566596176
-0.902625,4.842948657997113,3.340816544256215
-0.9023749999999999,4.842948657997113,3.344498521916257
-0.9021250000000001,4.842948657997113,3.348180499576296
-0.901875,4.842948657997113,3.35186247723634
-0.9016249999999999,4.842948657997113,3.355544454896383
-0.901375,4.842948657997113,3.359226432556423
-0.901125,4.842948657997113,3.362908410216464
-0.9008749999999999,4.842948657997113,3.366590387876507
-0.900625,4.842948657997113,3.370272365536547
-0.9003749999999999,4.842948657997113,3.373954343196588
-0.9001250000000001,4.842948657997113,3.377636320856628
-0.899875,4.842948657997113,3.381318298516671
-0.899625,4.842948657997113,3.381318298516671
-0.899375,4.842948657997113,3.385000276176713
-0.899125,4.842948657997113,3.388682253836754
-0.898875,4.842948657997113,3.392364231496796
-0.898625,4.842948657997113,3.396046209156837
-0.898375,4.842948657997113,3.399728186816878
-0.898125,4.842948657997113,3.40341016447692
-0.897875,4.842948657997113,3.40341016447692
-0.897625,4.842948657997113,3.410774119797003
-0.897375,4.842948657997113,3.414456097457044
-0.897125,4.842948657997113,3.418138075117086
-0.896875,4.842948657997113,3.418138075117086
-0.896625,4.842948657997113,3.421820052777127
-0.896375,4.842948657997113,3.425502030437169
-0.8961249999999999,4.839281805493975,3.42918400809721
-0.895875,4.842948657997113,3.432865985757251
-0.895625,4.839281805493975,3.436547963417293
-0.895375,4.839281805493975,3.440229941077334
-0.8951249999999999,4.839281805493975,3.443911918737375
-0.894875,4.842948657997113,3.447593896397417
-0.894625,4.839281805493975,3.451275874057459
-0.894375,4.842948657997113,3.4549578517175
-0.8941249999999999,4.842948657997113,3.458639829377542
-0.893875,4.842948657997113,3.462321807037583
-0.893625,4.839281805493975,3.466003784697624
-0.893375,4.842948657997113,3.469685762357666
-0.8931249999999999,4.842948657997113,3.473367740017707
-0.892875,4.842948657997113,3.477049717677748
-0.892625,4.842948657997113,3.48073169533779
-0.892375,4.842948657997113,3.484413672997832
-0.8921249999999999,4.839281805493975,3.491777628317914
-0.891875,4.839281805493975,3.495459605977956
-0.891625,4.839281805493975,3.499141583637997
-0.891375,4.842948657997113,3.499141583637997
-0.8911249999999999,4.842948657997113,3.502823561298039
-0.890875,4.842948657997113,3.50650553895808
-0.890625,4.842948657997113,3.510187516618121
-0.890375,4.839281805493975,3.513869494278163
-0.8901249999999999,4.842948657997113,3.517551471938205
-0.889875,4.842948657997113,3.521233449598246
-0.889625,4.842948657997113,3.524915427258287
-0.889375,4.842948657997113,3.528597404918329
-0.8891249999999999,4.842948657997113,3.53227938257837
-0.888875,4.842948657997113,3.535961360238411
-0.888625,4.842948657997113,3.539643337898453
-0.888375,4.842948657997113,3.543325315558494
-0.8881249999999999,4.842948657997113,3.547007293218536
-0.887875,4.842948657997113,3.550689270878578
-0.887625,4.842948657997113,3.554371248538619
-0.887375,4.842948657997113,3.55805322619866
-0.8871249999999999,4.842948657997113,3.561735203858702
-0.886875,4.842948657997113,3.565417181518743
-0.886625,4.842948657997113,3.569099159178784
-0.886375,4.842948657997113,3.572781136838826
-0.8861249999999999,4.839281805493975,3.576463114498867
-0.885875,4.839281805493975,3.576463114498867
-0.885625,4.842948657997113,3.58382706981895
-0.885375,4.842948657997113,3.58382706981895
-0.8851249999999999,4.842948657997113,3.587509047478992
-0.884875,4.842948657997113,3.594873002799075
-0.884625,4.842948657997113,3.594873002799075
-0.884375,4.842948657997113,3.598554980459116
-0.8841249999999999,4.839281805493975,3.602236958119157
-0.883875,4.842948657997113,3.605918935779199
-0.883625,4.839281805493975,3.609600913439241
-0.883375,4.839281805493975,3.613282891099282
-0.8831249999999999,4.842948657997113,3.616964868759323
-0.882875,4.842948657997113,3.620646846419365
-0.882625,4.839281805493975,3.624328824079406
-0.882375,4.839281805493975,3.628010801739447
-0.8821249999999999,4.842948657997113,3.631692779399489
-0.881875,4.842948657997113,3.63537475705953
-0.881625,4.839281805493975,3.639056734719572
-0.881375,4.842948657997113,3.642738712379614
-0.8811249999999999,4.842948657997113,3.646420690039655
-0.880875,4.842948657997113,3.650102667699696
-0.880625,4.842948657997113,3.653784645359738
-0.880375,4.842948657997113,3.657466623019779
-0.8801249999999999,4.842948657997113,3.66114860067982
-0.879875,4.842948657997113,3.664830578339862
-0.879625,4.842948657997113,3.668512555999903
-0.879375,4.842948657997113,3.672194533659945
-0.8791249999999999,4.842948657997113,3.672194533659945
-0.878875,4.842948657997113,3.679558488980028
-0.878625,4.842948657997113,3.679558488980028
-0.878375,4.842948657997113,3.683240466640069
-0.8781249999999999,4.839281805493975,3.686922444300111
-0.877875,4.842948657997113,3.690604421960152
-0.877625,4.842948657997113,3.694286399620193
-0.877375,4.842948657997113,3.697968377280235
-0.8771249999999999,4.842948657997113,3.701650354940276
-0.876875,4.842948657997113,3.705332332600318
-0.876625,4.842948657997113,3.709014310260359
-0.876375,4.842948657997113,3.712696287920401
-0.8761249999999999,4.842948657997113,3.716378265580442
-0.875875,4.842948657997113,3.720060243240483
-0.875625,4.842948657997113,3.723742220900525
-0.875375,4.842948657997113,3.727424198560566
-0.8751249999999999,4.842948657997113,3.727424198560566
-0.874875,4.842948657997113,3.731106176220608
-0.874625,4.842948657997113,3.734788153880649
-0.874375,4.842948657997113,3.738470131540691
-0.8741249999999999,4.842948657997113,3.742152109200732
-0.873875,4.839281805493975,3.745834086860774
-0.873625,4.839281805493975,3.749516064520815
-0.873375,4.842948657997113,3.753198042180856
-0.8731249999999999,4.839281805493975,3.753198042180856
-0.872875,4.842948657997113,3.760561997500939
-0.872625,4.842948657997113,3.764243975160981
-0.872375,4.842948657997113,3.767925952821022
-0.8721249999999999,4.842948657997113,3.771607930481064
-0.871875,4.842948657997113,3.775289908141105
-0.871625,4.842948657997113,3.775289908141105
-0.871375,4.842948657997113,3.778971885801147
-0.8711249999999999,4.842948657997113,3.782653863461188
-0.870875,4.839281805493975,3.786335841121229
-0.870625,4.839281805493975,3.790017818781271
-0.870375,4.842948657997113,3.793699796441312
-0.8701249999999999,4.839281805493975,3.797381774101354
-0.869875,4.842948657997113,3.801063751761395
-0.869625,4.842948657997113,3.801063751761395
-0.869375,4.842948657997113,3.804745729421437
-0.8691249999999999,4.839281805493975,3.808427707081478
-0.868875,4.839281805493975,3.812109684741519
-0.868625,4.839281805493975,3.815791662401561
-0.868375,4.839281805493975,3.823155617721644
-0.868125,4.839281805493975,3.823155617721644
-0.867875,4.842948657997113,3.826837595381685
-0.867625,4.842948657997113,3.830519573041727
-0.867375,4.839281805493975,3.834201550701768
-0.867125,4.842948657997113,3.83788352836181
-0.866875,4.839281805493975,3.841565506021851
-0.866625,4.839281805493975,3.845247483681892
-0.866375,4.842948657997113,3.848929461341934
-0.866125,4.839281805493975,3.852611439001975
-0.865875,4.839281805493975,3.856293416662017
-0.865625,4.839281805493975,3.856293416662017
-0.865375,4.842948657997113,3.859975394322058
-0.865125,4.839281805493975,3.8636573719821
-0.8648749999999999,4.839281805493975,3.867339349642141
-0.864625,4.839281805493975,3.871021327302183
-0.864375,4.839281805493975,3.874703304962224
-0.864125,4.839281805493975,3.878385282622265
-0.8638749999999999,4.842948657997113,3.878385282622265
-0.863625,4.842948657997113,3.882067260282307
-0.863375,4.842948657997113,3.885749237942348
-0.863125,4.839281805493975,3.88943121560239
-0.8628749999999999,4.839281805493975,3.893113193262431
-0.862625,4.839281805493975,3.893113193262431
-0.862375,4.839281805493975,3.896795170922473
-0.862125,4.839281805493975,3.904159126242555
-0.8618749999999999,4.839281805493975,3.904159126242555
-0.861625,4.839281805493975,3.907841103902597
-0.861375,4.839281805493975,3.911523081562638
-0.861125,4.839281805493975,3.91520505922268
-0.8608749999999999,4.839281805493975,3.91520505922268
-0.860625,4.839281805493975,3.918887036882721
-0.860375,4.839281805493975,3.922569014542763
-0.860125,4.839281805493975,3.926250992202804
-0.8598749999999999,4.839281805493975,3.929932969862846
-0.859625,4.839281805493975,3.933614947522887
-0.859375,4.839281805493975,3.937296925182928
-0.859125,4.839281805493975,3.94097890284297
-0.8588749999999999,4.839281805493975,3.944660880503011
-0.858625,4.839281805493975,3.948342858163053
-0.858375,4.839281805493975,3.948342858163053
-0.858125,4.839281805493975,3.952024835823094
-0.8578749999999999,4.842948657997113,3.955706813483136
-0.857625,4.839281805493975,3.959388791143177
-0.857375,4.842948657997113,3.963070768803219
-0.857125,4.842948657997113,3.96675274646326
-0.8568749999999999,4.842948657997113,3.96675274646326
-0.856625,4.842948657997113,3.970434724123301
-0.856375,4.842948657997113,3.974116701783343
-0.856125,4.842948657997113,3.977798679443384
-0.8558749999999999,4.842948657997113,3.981480657103426
-0.855625,4.842948657997113,3.985162634763467
-0.855375,4.842948657997113,3.985162634763467
-0.855125,4.842948657997113,3.99252659008355
-0.8548749999999999,4.842948657997113,3.996208567743591
-0.854625,4.842948657997113,3.999890545403633
-0.854375,4.842948657997113,3.999890545403633
-0.854125,4.842948657997113,4.003572523063674
-0.8538749999999999,4.842948657997113,4.007254500723715
-0.853625,4.842948657997113,4.010936478383757
-0.853375,4.839281805493975,4.014618456043798
-0.853125,4.839281805493975,4.01830043370384
-0.8528749999999999,4.839281805493975,4.01830043370384
-0.852625,4.842948657997113,4.021982411363881
-0.852375,4.839281805493975,4.025664389023922
-0.852125,4.839281805493975,4.029346366683964
-0.8518749999999999,4.839281805493975,4.033028344344006
-0.851625,4.839281805493975,4.033028344344006
-0.851375,4.839281805493975,4.036710322004047
-0.851125,4.839281805493975,4.040392299664088
-0.8508749999999999,4.842948657997113,4.04407427732413
-0.850625,4.842948657997113,4.047756254984171
-0.850375,4.842948657997113,4.051438232644212
-0.850125,4.842948657997113,4.051438232644212
-0.8498749999999999,4.842948657997113,4.055120210304254
-0.849625,4.839281805493975,4.058802187964296
-0.849375,4.839281805493975,4.062484165624337
-0.849125,4.839281805493975,4.066166143284378
-0.8488749999999999,4.839281805493975,4.066166143284378
-0.848625,4.842948657997113,4.06984812094442
-0.848375,4.842948657997113,4.073530098604461
-0.848125,4.839281805493975,4.077212076264503
-0.8478749999999999,4.839281805493975,4.080894053924544
-0.847625,4.839281805493975,4.084576031584586
-0.847375,4.839281805493975,4.088258009244627
-0.847125,4.839281805493975,4.088258009244627
-0.8468749999999999,4.839281805493975,4.091939986904668
-0.846625,4.839281805493975,4.095621964564709
-0.846375,4.842948657997113,4.099303942224751
-0.846125,4.839281805493975,4.102985919884793
-0.8458749999999999,4.839281805493975,4.102985919884793
-0.845625,4.839281805493975,4.106667897544834
-0.845375,4.842948657997113,4.110349875204876
-0.845125,4.839281805493975,4.114031852864917
-0.8448749999999999,4.839281805493975,4.117713830524958
-0.844625,4.839281805493975,4.117713830524958
-0.844375,4.842948657997113,4.121395808185
-0.844125,4.839281805493975,4.125077785845042
-0.8438749999999999,4.842948657997113,4.128759763505083
-0.843625,4.842948657997113,4.132441741165124
-0.843375,4.842948657997113,4.136123718825166
-0.843125,4.842948657997113,4.136123718825166
-0.8428749999999999,4.842948657997113,4.139805696485207
-0.842625,4.839281805493975,4.143487674145248
-0.842375,4.839281805493975,4.14716965180529
-0.842125,4.839281805493975,4.150851629465332
-0.8418749999999999,4.839281805493975,4.150851629465332
-0.841625,4.839281805493975,4.154533607125373
-0.841375,4.839281805493975,4.154533607125373
-0.841125,4.839281805493975,4.158215584785414
-0.8408749999999999,4.839281805493975,4.161897562445456
-0.840625,4.839281805493975,4.165579540105497
-0.840375,4.842948657997113,4.165579540105497
-0.840125,4.842948657997113,4.169261517765539
-0.8398749999999999,4.842948657997113,4.17294349542558
-0.839625,4.839281805493975,4.176625473085622
-0.839375,4.842948657997113,4.180307450745663
-0.839125,4.839281805493975,4.183989428405704
-0.8388749999999999,4.842948657997113,4.183989428405704
-0.838625,4.842948657997113,4.187671406065745
-0.838375,4.839281805493975,4.191353383725787
-0.838125,4.839281805493975,4.195035361385829
-0.8378749999999999,4.839281805493975,4.19871733904587
-0.837625,4.842948657997113,4.19871733904587
-0.837375,4.842948657997113,4.202399316705912
-0.837125,4.842948657997113,4.206081294365953
-0.836875,4.842948657997113,4.209763272025994
-0.836625,4.842948657997113,4.209763272025994
-0.836375,4.842948657997113,4.213445249686036
-0.836125,4.842948657997113,4.217127227346078
-0.835875,4.842948657997113,4.217127227346078
-0.835625,4.842948657997113,4.22449118266616
-0.835375,4.839281805493975,4.228173160326202
-0.835125,4.842948657997113,4.228173160326202
-0.834875,4.842948657997113,4.231855137986243
-0.834625,4.839281805493975,4.235537115646284
-0.834375,4.839281805493975,4.235537115646284
-0.834125,4.842948657997113,4.239219093306326
-0.833875,4.842948657997113,4.242901070966368
-0.8336249999999999,4.842948657997113,4.246583048626409
-0.833375,4.839281805493975,4.246583048626409
-0.833125,4.842948657997113,4.25026502628645
-0.832875,4.842948657997113,4.253947003946491
-0.8326249999999999,4.842948657997113,4.257628981606533
-0.832375,4.842948657997113,4.257628981606533
-0.832125,4.842948657997113,4.261310959266575
-0.831875,4.842948657997113,4.261310959266575
-0.8316249999999999,4.842948657997113,4.268674914586658
-0.831375,4.839281805493975,4.268674914586658
-0.831125,4.842948657997113,4.272356892246699
-0.830875,4.842948657997113,4.27603886990674
-0.8306249999999999,4.842948657997113,4.27603886990674
-0.830375,4.842948657997113,4.279720847566781
-0.830125,4.842948657997113,4.283402825226823
-0.829875,4.842948657997113,4.287084802886865
-0.8296249999999999,4.842948657997113,4.287084802886865
-0.829375,4.842948657997113,4.290766780546906
-0.829125,4.842948657997113,4.294448758206948
-0.828875,4.842948657997113,4.294448758206948
-0.8286249999999999,4.842948657997113,4.30181271352703
-0.828375,4.842948657997113,4.30181271352703
-0.828125,4.842948657997113,4.305494691187072
-0.827875,4.842948657997113,4.309176668847114
-0.8276249999999999,4.842948657997113,4.309176668847114
-0.827375,4.842948657997113,4.316540624167196
-0.827125,4.842948657997113,4.316540624167196
-0.826875,4.842948657997113,4.320222601827237
-0.8266249999999999,4.842948657997113,4.320222601827237
-0.826375,4.842948657997113,4.323904579487279
-0.826125,4.842948657997113,4.32758655714732
-0.825875,4.839281805493975,4.331268534807362
-0.8256249999999999,4.839281805493975,4.331268534807362
-0.825375,4.842948657997113,4.334950512467404
-0.825125,4.842948657997113,4.338632490127445
