InputOutputData2Bit/InputOutput2Bit100HzPart2.csv

#Digilent WaveForms Oscilloscope Acquisition
#Device Name: Discovery2
#Serial Number: SN:210321B2E135
#Date Time: 2023-11-01 14:42:39.301
#Sample rate: 1600Hz
#Samples: 8192
#Trigger: Source: Channel 2 Type: Edge Condition: Rising Level: 1.83125 V Hyst.: Auto HoldOff: 100 ns
#Channel 1: Range: 2 V/div Offset: 0 V Attenuation: 1 X
#Channel 2: Range: 2 V/div Offset: 0 V Attenuation: 1 X
#Wavegen Channel 1: Enabled
#Mode: Simple
#Type: Sine
#Frequency: 100 Hz
#Period: 10 ms
#Amplitude: 2.5 V
#Offset: 2.5 V
#Symmetry: 50 %
#Phase: 0 °
#Wavegen Channel 2: Enabled
#Mode: Simple
#Type: DC
#Offset: 5 V

Time (s),Channel 1 (V),Channel 2 (V)
-2.459674770875764,0.1053752239427904,3.712696287920401
-2.459049770875764,2.074475018127012,4.754695965711653
-2.458424770875764,4.791612722953182,4.776787831672376
-2.457799770875764,4.791612722953182,4.776787831672376
-2.457174770875764,4.791612722953182,4.776787831672376
-2.456549770875764,4.791612722953182,4.776787831672376
-2.455924770875764,4.791612722953182,4.776787831672376
-2.455299770875764,0.9817529721927774,4.743650032732003
-2.454674770875764,0.1090420764463254,2.243587201565004
-2.454049770875764,0.1127089289490698,0.0969942257597112
-2.453424770875764,0.1200426339553425,0.1043581810797907
-2.452799770875764,0.1200426339553425,0.1043581810797907
-2.452174770875764,0.1200426339553425,0.1043581810797907
-2.451549770875764,0.1200426339553425,0.1043581810797907
-2.450924770875764,0.1200426339553425,0.1043581810797907
-2.450299770875764,0.1127089289490664,0.09699422575970786
-2.449674770875764,0.1053752239436875,3.709014310260833
-2.449049770875764,2.078141870631045,4.751013988052086
-2.448424770875764,4.791612722953182,4.776787831672376
-2.447799770875764,4.791612722953182,4.776787831672376
-2.447174770875764,4.791612722953182,4.776787831672376
-2.446549770875764,4.791612722953182,4.776787831672376
-2.445924770875764,4.791612722953182,4.776787831672376
-2.445299770875764,0.9854198246955168,4.743650032730867
-2.444674770875764,0.1090420764459284,2.247269179223908
-2.444049770875764,0.1127089289490664,0.09699422575970786
-2.443424770875764,0.1200426339553392,0.1043581810797874
-2.442799770875764,0.1200426339553425,0.1043581810797907
-2.442174770875764,0.1200426339553425,0.1043581810797907
-2.441549770875764,0.1200426339553425,0.1043581810797907
-2.440924770875764,0.1200426339553392,0.1043581810797874
-2.440299770875764,0.1127089289490664,0.09699422575970786
-2.439674770875764,0.1053752239427904,3.709014310260359
-2.439049770875764,2.085475575636421,4.754695965711651
-2.438424770875764,4.791612722953182,4.776787831672376
-2.437799770875764,4.791612722953182,4.776787831672376
-2.437174770875764,4.791612722953182,4.776787831672376
-2.436549770875764,4.791612722953182,4.776787831672376
-2.435924770875764,4.791612722953182,4.776787831672376
-2.435299770875764,0.9854198246959154,4.743650032732003
-2.434674770875764,0.1090420764459284,2.247269179223908
-2.434049770875764,0.1127089289490698,0.100676203419751
-2.433424770875764,0.1200426339553425,0.1043581810797907
-2.432799770875764,0.1200426339553425,0.1043581810797907
-2.432174770875764,0.1200426339553425,0.1043581810797907
-2.431549770875764,0.1200426339553425,0.1043581810797907
-2.430924770875764,0.1200426339553425,0.1043581810797907
-2.430299770875764,0.1127089289490664,0.09699422575970786
-2.429674770875764,0.1053752239436858,3.712696287920874
-2.429049770875764,2.074475018127907,4.754695965712127
-2.428424770875764,4.791612722953182,4.776787831672376
-2.427799770875764,4.791612722953182,4.776787831672376
-2.427174770875764,4.791612722953182,4.776787831672376
-2.426549770875764,4.791612722953182,4.776787831672376
-2.425924770875764,4.791612722953182,4.776787831672376
-2.425299770875764,0.9890866771986532,4.743650032730869
-2.424674770875764,0.1090420764459284,2.25095115688395
-2.424049770875764,0.1127089289490664,0.1006762034197493
-2.423424770875764,0.1200426339553392,0.1043581810797891
-2.422799770875764,0.1200426339553425,0.1043581810797907
-2.422174770875764,0.1200426339553425,0.1043581810797907
-2.421549770875764,0.1200426339553425,0.1043581810797907
-2.420924770875764,0.1200426339553425,0.1043581810797907
-2.420299770875764,0.1127089289490664,0.09699422575970786
-2.419674770875764,0.1053752239427904,3.709014310260359
-2.419049770875764,2.059807608115356,4.751013988052086
-2.418424770875764,4.791612722953182,4.776787831672376
-2.417799770875764,4.791612722953182,4.776787831672376
-2.417174770875764,4.791612722953182,4.776787831672376
-2.416549770875764,4.791612722953182,4.776787831672376
-2.415924770875764,4.791612722953182,4.776787831672376
-2.415299770875764,0.9927535297021914,4.743650032732003
-2.414674770875764,0.1053752239427904,2.25095115688395
-2.414049770875764,0.1127089289490698,0.100676203419751
-2.413424770875764,0.1200426339553425,0.1043581810797907
-2.412799770875764,0.1200426339553425,0.1043581810797907
-2.412174770875764,0.1200426339553425,0.1043581810797907
-2.411549770875764,0.1200426339553425,0.1043581810797907
-2.410924770875764,0.1200426339553425,0.1043581810797907
-2.410299770875764,0.1127089289490664,0.09699422575970786
-2.409674770875764,0.1053752239436908,3.712696287920874
-2.409049770875764,2.085475575637322,4.754695965712127
-2.408424770875764,4.791612722953182,4.776787831672376
-2.407799770875764,4.791612722953182,4.776787831672376
-2.407174770875764,4.791612722953182,4.776787831672376
-2.406549770875764,4.791612722953182,4.776787831672376
-2.405924770875764,4.791612722953182,4.776787831672376
-2.405299770875764,0.9927535297039189,4.743650032732018
-2.404674770875764,0.1090420764459284,2.254633134543991
-2.404049770875764,0.1127089289490664,0.1006762034197493
-2.403424770875764,0.1200426339553425,0.1080401587398322
-2.402799770875764,0.1200426339553425,0.1043581810797907
-2.402174770875764,0.1200426339553425,0.1043581810797907
-2.401549770875764,0.1200426339553425,0.1043581810797907
-2.400924770875764,0.1200426339553425,0.1043581810797907
-2.400299770875764,0.1127089289490664,0.09699422575970786
-2.399674770875764,0.1053752239427904,3.716378265580442
-2.399049770875764,2.078141870631045,4.754695965712127
-2.398424770875764,4.791612722953182,4.776787831672376
-2.397799770875764,4.791612722953182,4.776787831672376
-2.397174770875764,4.791612722953182,4.776787831672376
-2.396549770875764,4.791612722953182,4.776787831672376
-2.395924770875764,4.791612722953182,4.776787831672376
-2.395299770875764,0.9890866771990534,4.743650032732003
-2.394674770875764,0.1090420764459284,2.247269179223908
-2.394049770875764,0.1127089289490698,0.100676203419751
-2.393424770875764,0.1200426339553425,0.1043581810797907
-2.392799770875764,0.1200426339553425,0.1043581810797907
-2.392174770875764,0.1200426339553425,0.1043581810797907
-2.391549770875764,0.1200426339553425,0.1043581810797907
-2.390924770875764,0.1200426339553425,0.1043581810797907
-2.390299770875764,0.1127089289490664,0.09699422575970786
-2.389674770875764,0.1053752239427937,3.720060243238836
-2.389049770875764,2.074475018127907,4.754695965712127
-2.388424770875764,4.787945870450043,4.776787831672376
-2.387799770875764,4.791612722953182,4.776787831672376
-2.387174770875764,4.791612722953182,4.776787831672376
-2.386549770875764,4.791612722953182,4.776787831672376
-2.385924770875764,4.791612722953182,4.776787831672376
-2.385299770875764,0.9780861196913735,4.743650032732018
-2.384674770875764,0.1090420764459284,2.25095115688395
-2.384049770875764,0.1127089289490664,0.1006762034197493
-2.383424770875764,0.1200426339553425,0.1043581810797907
-2.382799770875764,0.1200426339553425,0.1043581810797907
-2.382174770875764,0.1200426339553425,0.1043581810797907
-2.381549770875764,0.1200426339553425,0.1043581810797907
-2.380924770875764,0.1200426339553425,0.1043581810797907
-2.380299770875764,0.1127089289490664,0.09699422575970786
-2.379674770875764,0.1053752239427904,3.716378265580442
-2.379049770875764,2.070808165624769,4.754695965712127
-2.378424770875764,4.791612722953182,4.776787831672376
-2.377799770875764,4.791612722953182,4.776787831672376
-2.377174770875764,4.791612722953182,4.776787831672376
-2.376549770875764,4.791612722953182,4.776787831672376
-2.375924770875764,4.791612722951447,4.776787831672361
-2.375299770875764,0.9780861196896393,4.743650032732003
-2.374674770875764,0.1090420764459284,2.247269179223908
-2.374049770875764,0.1163757814522011,0.09699422576068573
-2.373424770875764,0.1200426339553425,0.1043581810797907
-2.372799770875764,0.1200426339553425,0.1043581810797907
-2.372174770875764,0.1200426339553425,0.1043581810797907
-2.371549770875764,0.1200426339553425,0.1043581810797907
-2.370924770875764,0.1200426339553425,0.1043581810797907
-2.370299770875764,0.1127089289490664,0.09699422575970786
-2.369674770875764,0.1053752239427937,3.712696287918757
-2.369049770875764,2.085475575637322,4.754695965712127
-2.368424770875764,4.791612722953182,4.776787831672376
-2.367799770875764,4.791612722953182,4.776787831672376
-2.367174770875764,4.791612722953182,4.776787831672376
-2.366549770875764,4.791612722953182,4.776787831672376
-2.365924770875764,4.791612722953182,4.776787831672376
-2.365299770875764,0.9817529721945095,4.743650032732018
-2.364674770875764,0.1090420764459284,2.243587201563867
-2.364049770875764,0.1127089289490664,0.1006762034197493
-2.363424770875764,0.1200426339553425,0.1043581810797907
-2.362799770875764,0.1200426339553425,0.1043581810797907
-2.362174770875764,0.1200426339553425,0.1043581810797907
-2.361549770875764,0.1200426339553425,0.1043581810797907
-2.360924770875764,0.1200426339553425,0.1043581810797907
-2.360299770875764,0.1127089289490631,0.09699422576135208
-2.359674770875764,0.1053752239427904,3.712696287920401
-2.359049770875764,2.092809280643598,4.751013988052086
-2.358424770875764,4.791612722951954,4.776787831672364
-2.357799770875764,4.791612722953182,4.776787831672376
-2.357174770875764,4.791612722953182,4.776787831672376
-2.356549770875764,4.791612722953182,4.776787831672376
-2.355924770875764,4.79161272295145,4.776787831672361
-2.355299770875764,0.9854198246959154,4.743650032732003
-2.354674770875764,0.1090420764459284,2.247269179223908
-2.354049770875764,0.1127089289490648,0.1006762034207256
-2.353424770875764,0.1200426339553425,0.1043581810797907
-2.352799770875764,0.1200426339553425,0.1043581810797907
-2.352174770875764,0.1200426339553425,0.1043581810797907
-2.351549770875764,0.1200426339553425,0.1043581810797907
-2.350924770875764,0.1200426339553425,0.1043581810797907
-2.350299770875764,0.1127089289490664,0.09699422575970786
-2.349674770875764,0.1053752239427937,3.716378265578796
-2.349049770875764,2.070808165624769,4.754695965712127
-2.348424770875764,4.791612722953182,4.776787831672376
-2.347799770875764,4.791612722953182,4.776787831672376
-2.347174770875764,4.791612722953182,4.776787831672376
-2.346549770875764,4.791612722953182,4.776787831672376
-2.345924770875764,4.791612722953182,4.776787831672376
-2.345299770875764,0.9744192671882375,4.743650032732018
-2.344674770875764,0.1090420764459301,2.24726917922293
-2.344049770875764,0.1127089289490664,0.09699422575970786
-2.343424770875764,0.1200426339553425,0.1043581810797907
-2.342799770875764,0.1200426339553425,0.1043581810797907
-2.342174770875764,0.1200426339553425,0.1043581810797907
-2.341549770875764,0.1200426339553425,0.1043581810797907
-2.340924770875764,0.1200426339553425,0.1043581810797907
-2.340299770875764,0.1127089289490631,0.09699422576135042
-2.339674770875764,0.1053752239427904,3.709014310260359
-2.339049770875764,2.074475018127907,4.751013988052086
-2.338424770875764,4.791612722951946,4.776787831672364
-2.337799770875764,4.791612722953182,4.776787831672376
-2.337174770875764,4.791612722953182,4.776787831672376
-2.336549770875764,4.791612722953182,4.776787831672376
-2.335924770875764,4.791612722951452,4.776787831672361
-2.335299770875764,0.9890866771990534,4.743650032732003
-2.334674770875764,0.1090420764459284,2.247269179223908
-2.334049770875764,0.1127089289490648,0.1006762034207256
-2.333424770875764,0.1200426339553425,0.1043581810797907
-2.332799770875764,0.1200426339553425,0.1043581810797907
-2.332174770875764,0.1200426339553425,0.1043581810797907
-2.331549770875764,0.1200426339553425,0.1043581810797907
-2.330924770875764,0.1200426339553425,0.1043581810797907
-2.330299770875764,0.1127089289490664,0.09699422575970786
-2.329674770875764,0.1053752239427937,3.712696287918757
-2.329049770875764,2.081808723135416,4.751013988052097
-2.328424770875764,4.791612722953182,4.776787831672376
-2.327799770875764,4.791612722953182,4.776787831672376
-2.327174770875764,4.791612722953182,4.776787831672376
-2.326549770875764,4.791612722953182,4.776787831672376
-2.325924770875764,4.791612722953182,4.776787831672376
-2.325299770875764,0.9890866771990534,4.743650032732003
-2.324674770875764,0.1090420764459301,2.25095115688297
-2.324049770875764,0.1127089289490664,0.09699422575970786
-2.323424770875764,0.1200426339553425,0.1043581810797907
-2.322799770875764,0.1200426339553425,0.1043581810797907
-2.322174770875764,0.1200426339553425,0.1043581810797907
-2.321549770875764,0.1200426339553425,0.1043581810797907
-2.320924770875764,0.1200426339553425,0.1043581810797907
-2.320299770875764,0.1127089289490631,0.09699422576135208
-2.319674770875764,0.1053752239427904,3.712696287920401
-2.319049770875764,2.070808165624769,4.751013988052086
-2.318424770875764,4.791612722951944,4.776787831672364
-2.317799770875764,4.791612722953182,4.776787831672376
-2.317174770875764,4.791612722953182,4.776787831672376
-2.316549770875764,4.791612722953182,4.776787831672376
-2.315924770875764,4.791612722951454,4.776787831672361
-2.315299770875764,0.9927535297021914,4.743650032732003
-2.314674770875764,0.1090420764459284,2.25095115688395
-2.314049770875764,0.1127089289490648,0.0969942257606875
-2.313424770875764,0.1200426339553425,0.1043581810797907
-2.312799770875764,0.1200426339553425,0.1043581810797907
-2.312174770875764,0.1200426339553425,0.1043581810797907
-2.311549770875764,0.1200426339553425,0.1043581810797907
-2.310924770875764,0.1200426339553425,0.1043581810797907
-2.310299770875764,0.1127089289490664,0.09699422575970786
-2.309674770875764,0.1053752239427904,3.712696287920401
-2.309049770875764,2.089142428141688,4.754695965712137
-2.308424770875764,4.791612722953182,4.776787831672376
-2.307799770875764,4.791612722953182,4.776787831672376
-2.307174770875764,4.791612722953182,4.776787831672376
-2.306549770875764,4.791612722953182,4.776787831672376
-2.305924770875764,4.791612722953182,4.776787831672376
-2.305299770875764,0.9927535297021914,4.743650032732003
-2.304674770875764,0.1053752239427937,2.25095115688297
-2.304049770875764,0.1127089289490664,0.09699422575970786
-2.303424770875764,0.1200426339553425,0.1043581810797907
-2.302799770875764,0.1200426339553425,0.1043581810797907
-2.302174770875764,0.1200426339553425,0.1043581810797907
-2.301549770875764,0.1200426339553425,0.1043581810797907
-2.300924770875764,0.1200426339553425,0.1043581810797907
-2.300299770875764,0.1127089289490631,0.09699422576135376
-2.299674770875764,0.1053752239427904,3.716378265580442
-2.299049770875764,2.081808723134183,4.751013988052086
-2.298424770875764,4.79161272295195,4.776787831672364
-2.297799770875764,4.791612722953182,4.776787831672376
-2.297174770875764,4.791612722953182,4.776787831672376
-2.296549770875764,4.791612722953182,4.776787831672376
-2.295924770875764,4.791612722953182,4.776787831672376
-2.295299770875764,0.9927535297021914,4.739968055071961
-2.294674770875764,0.1090420764459284,2.247269179223908
-2.294049770875764,0.1127089289490664,0.09699422575970786
-2.293424770875764,0.1200426339553425,0.1043581810797907
-2.292799770875764,0.1200426339553425,0.1043581810797907
-2.292174770875764,0.1200426339553425,0.1043581810797907
-2.291549770875764,0.1200426339553425,0.1043581810797907
-2.290924770875764,0.1200426339553425,0.1043581810797907
-2.290299770875764,0.1127089289490664,0.09699422575970786
-2.289674770875764,0.1053752239427904,3.716378265580442
-2.289049770875764,2.085475575638552,4.751013988052097
-2.288424770875764,4.791612722953182,4.776787831672376
-2.287799770875764,4.791612722953182,4.776787831672376
-2.287174770875764,4.791612722953182,4.776787831672376
-2.286549770875764,4.791612722953182,4.776787831672376
-2.285924770875764,4.791612722953182,4.776787831672376
-2.285299770875764,0.9780861196896393,4.743650032732003
-2.284674770875764,0.1053752239427937,2.250951156882972
-2.284049770875764,0.1127089289490664,0.1006762034197493
-2.283424770875764,0.1200426339553425,0.1043581810797907
-2.282799770875764,0.1200426339553425,0.1043581810797907
-2.282174770875764,0.1200426339553425,0.1043581810797907
-2.281549770875764,0.1200426339553425,0.1043581810797907
-2.280924770875764,0.1200426339553425,0.1043581810797907
-2.280299770875764,0.1127089289490698,0.0969942257597112
-2.279674770875764,0.1053752239427904,3.712696287920401
-2.279049770875764,2.074475018127907,4.751013988052086
-2.278424770875764,4.791612722953182,4.776787831672376
-2.277799770875764,4.791612722953182,4.776787831672376
-2.277174770875764,4.791612722953182,4.776787831672376
-2.276549770875764,4.791612722953182,4.776787831672376
-2.275924770875764,4.791612722953182,4.776787831672376
-2.275299770875764,0.9780861196896393,4.743650032732003
-2.274674770875764,0.1090420764459284,2.247269179223908
-2.274049770875764,0.1127089289490664,0.09699422575970786
-2.273424770875764,0.1200426339553425,0.1043581810797907
-2.272799770875764,0.1200426339553425,0.1043581810797907
-2.272174770875764,0.1200426339553425,0.1043581810797907
-2.271549770875764,0.1200426339553425,0.1043581810797907
-2.270924770875764,0.1200426339553425,0.1043581810797907
-2.270299770875764,0.1127089289490664,0.09699422575970786
-2.269674770875764,0.1053752239427904,3.712696287920401
-2.269049770875764,2.103809838154234,4.754695965712137
-2.268424770875764,4.791612722953182,4.776787831672376
-2.267799770875764,4.787945870450043,4.776787831672376
-2.267174770875764,4.79161272295318,4.776787831672376
-2.266549770875764,4.791612722953182,4.776787831672376
-2.265924770875764,4.791612722953182,4.776787831672376
-2.265299770875764,0.9817529721927774,4.743650032732003
-2.264674770875764,0.105375223943189,2.243587201565004
-2.264049770875764,0.1127089289490664,0.1006762034197493
-2.263424770875764,0.1200426339553425,0.1043581810797907
-2.262799770875764,0.1200426339553425,0.1043581810797907
-2.262174770875764,0.1200426339553425,0.1043581810797907
-2.261549770875764,0.1200426339553425,0.1043581810797907
-2.260924770875764,0.1200426339553425,0.1043581810797907
-2.260299770875764,0.1127089289490698,0.0969942257597112
-2.259674770875764,0.1053752239427904,3.712696287920401
-2.259049770875764,2.078141870631045,4.751013988052086
-2.258424770875764,4.791612722953182,4.776787831672376
-2.257799770875764,4.791612722953182,4.776787831672376
-2.257174770875764,4.791612722953182,4.776787831672376
-2.256549770875764,4.791612722953182,4.776787831672376
-2.255924770875764,4.791612722953182,4.776787831672376
-2.255299770875764,0.9854198246959154,4.743650032732003
-2.254674770875764,0.1090420764459284,2.243587201563867
-2.254049770875764,0.1127089289490664,0.09699422575970786
-2.253424770875764,0.1200426339553425,0.1043581810797907
-2.252799770875764,0.1200426339553425,0.1043581810797907
-2.252174770875764,0.1200426339553425,0.1043581810797907
-2.251549770875764,0.1200426339553425,0.1043581810797907
-2.250924770875764,0.1200426339553392,0.1043581810797874
-2.250299770875764,0.1127089289490664,0.09699422575970786
-2.249674770875764,0.1053752239427904,3.712696287920401
-2.249049770875764,2.078141870630148,4.754695965711653
-2.248424770875764,4.791612722953182,4.776787831672376
-2.247799770875764,4.791612722953182,4.776787831672376
-2.247174770875764,4.791612722953182,4.776787831672376
-2.246549770875764,4.791612722953182,4.776787831672376
-2.245924770875764,4.791612722953182,4.776787831672376
-2.245299770875764,0.9854198246959154,4.743650032732003
-2.244674770875764,0.109042076446327,2.247269179225043
