InputOutputData2Bit/InputOutput2Bit100HzPart1.csv

#Digilent WaveForms Oscilloscope Acquisition
#Device Name: Discovery2
#Serial Number: SN:210321B2E135
#Date Time: 2023-11-01 14:47:20.058
#Sample rate: 80000Hz
#Samples: 8192
#Trigger: Source: Channel 2 Type: Edge Condition: Rising Level: 1.83125 V Hyst.: Auto HoldOff: 100 ns
#Channel 1: Range: 2 V/div Offset: 0 V Attenuation: 1 X
#Channel 2: Range: 2 V/div Offset: 0 V Attenuation: 1 X
#Wavegen Channel 1: Running
#Mode: Simple
#Type: Sine
#Frequency: 100 Hz
#Period: 10 ms
#Amplitude: 2.5 V
#Offset: 2.5 V
#Symmetry: 50 %
#Phase: 0 °
#Wavegen Channel 2: Running
#Mode: Simple
#Type: DC
#Offset: 5 V

Time (s),Channel 1 (V),Channel 2 (V)
0.0488125,0.208047094030655,0.3731425502628157
0.04882500000000001,0.208047094030655,0.3841884832429451
0.04883750000000001,0.208047094030655,0.3952344162230643
0.04885,0.208047094030655,0.4062803492031887
0.0488625,0.208047094030655,0.417326282183313
0.048875,0.211713946533793,0.4283722151634374
0.04888750000000001,0.208047094030655,0.4394181481435666
0.04890000000000001,0.208047094030655,0.450464081123686
0.0489125,0.208047094030655,0.4615100141038103
0.048925,0.208047094030655,0.4725559470839346
0.0489375,0.208047094030655,0.4836018800640589
0.04895000000000001,0.208047094030655,0.49464781304419
0.04896250000000001,0.208047094030655,0.5093757236843489
0.048975,0.208047094030655,0.5204216566644733
0.0489875,0.208047094030655,0.535149567304639
0.049,0.208047094030655,0.5425135226247219
0.04901250000000001,0.208047094030655,0.5572414332648943
0.04902500000000001,0.208047094030655,0.5719693439050534
0.0490375,0.208047094030655,0.5793332992251363
0.04905,0.208047094030655,0.5977431875253435
0.0490625,0.208047094030655,0.6051071428454263
0.04907500000000001,0.208047094030655,0.6198350534855971
0.04908750000000001,0.208047094030655,0.6308809864657164
0.0491,0.204380241527517,0.6456088971058822
0.0491125,0.208047094030655,0.660336807746048
0.049125,0.208047094030655,0.6750647183862136
0.04913750000000001,0.2080470940306533,0.6861106513663446
0.04915000000000001,0.204380241527517,0.7008385620065037
0.0491625,0.208047094030655,0.7155664726466695
0.049175,0.208047094030655,0.7302943832868353
0.0491875,0.208047094030655,0.7413403162669596
0.04920000000000001,0.208047094030655,0.7560682269071319
0.04921250000000001,0.208047094030655,0.770796137547291
0.049225,0.204380241527517,0.7855240481874568
0.0492375,0.208047094030655,0.8002519588276226
0.04925,0.208047094030655,0.8112978918077469
0.0492625,0.208047094030655,0.826025802447906
0.04927500000000001,0.208047094030655,0.8407537130880784
0.0492875,0.208047094030655,0.8554816237282442
0.0493,0.208047094030655,0.8702095343684099
0.0493125,0.204380241527517,0.8849374450085756
0.049325,0.2080470940306533,0.8996653556487347
0.04933750000000001,0.208047094030655,0.9180752439489486
0.04935,0.208047094030655,0.9328031545891143
0.0493625,0.208047094030655,0.9512130428893215
0.049375,0.208047094030655,0.9622589758694459
0.0493875,0.208047094030655,0.976986886509605
0.04940000000000001,0.208047094030655,0.9953967748098188
0.04941250000000001,0.208047094030655,1.010124685449985
0.049425,0.208047094030655,1.02485259609015
0.0494375,0.208047094030655,1.043262484390358
0.04945,0.2043802415275186,1.057990395030517
0.04946250000000001,0.204380241527517,1.072718305670689
0.04947500000000001,0.208047094030655,1.087446216310855
0.0494875,0.204380241527517,1.105856104611062
0.0495,0.208047094030655,1.120584015251228
0.0495125,0.208047094030655,1.138993903551426
0.04952500000000001,0.208047094030655,1.153721814191601
0.04953750000000001,0.204380241527517,1.172131702491808
0.04955,0.208047094030655,1.190541590792015
0.0495625,0.208047094030655,1.205269501432181
0.049575,0.208047094030655,1.21999741207234
0.04958750000000001,0.208047094030655,1.238407300372554
0.04960000000000001,0.208047094030655,1.256817188672761
0.0496125,2.664838271133129,1.275227076972968
0.049625,4.776945312940629,1.289954987613134
0.0496375,4.776945312940629,1.308364875913333
0.04965000000000001,4.769611607934353,1.323092786553507
0.04966250000000001,4.758611050424939,1.341502674853714
0.049675,4.747610492915525,1.363594540813963
0.0496875,4.740276787909249,1.378322451454128
0.0497,4.736609935406113,1.393050362094288
0.04971250000000001,4.732943082902973,1.415142228054543
0.04972500000000001,4.732943082902973,1.429870138694709
0.0497375,4.729276230399835,1.448280026994916
0.04975,4.729276230399835,1.466689915295123
0.0497625,4.725609377896698,1.485099803595322
0.04977500000000001,4.729276230399835,1.503509691895537
0.04978750000000001,4.725609377896697,1.521919580195745
0.0498,4.729276230399835,1.540329468495952
0.0498125,4.725609377896697,1.555057379136118
0.049825,4.725609377896697,1.573467267436316
0.04983750000000001,4.725609377896697,1.591877155736532
0.04985000000000001,4.725609377896697,1.610287044036739
0.0498625,4.729276230399835,1.628696932336946
0.049875,4.725609377896697,1.647106820637154
0.0498875,4.725609377896697,1.665516708937352
0.04990000000000001,4.725609377896697,1.683926597237568
0.04991250000000001,4.721942525393559,1.702336485537775
0.049925,4.725609377896697,1.724428351498024
0.0499375,4.725609377896697,1.739156262138189
0.04995,4.725609377896697,1.761248128098438
0.04996250000000001,4.725609377896697,1.775976038738604
0.04997500000000001,4.721942525393559,1.794385927038811
0.0499875,4.725609377896697,1.81647779299906
0.05,4.725609377896697,1.834887681299267
0.0500125,4.725609377896697,1.853297569599474
0.05002500000000001,4.725609377896697,1.871707457899681
0.05003750000000001,4.725609377896697,1.89379932385993
0.05005,4.725609377896697,1.908527234500096
0.0500625,4.725609377896697,1.930619100460344
0.050075,4.725609377896697,1.949028988760551
0.05008750000000001,4.725609377896697,1.9711208547208
0.05010000000000001,4.725609377896697,1.985848765360966
0.0501125,4.725609377896697,2.004258653661173
0.050125,4.721942525393559,2.022668541961381
0.0501375,4.725609377896697,2.044760407921629
0.05015000000000001,4.725609377896697,2.063170296221845
0.05016250000000001,4.725609377896697,2.081580184522044
0.050175,4.725609377896697,2.103672050482292
0.0501875,4.725609377896697,2.122081938782499
0.0502,4.725609377896697,2.140491827082706
0.05021250000000001,4.725609377896697,2.158901715382924
0.05022500000000001,4.725609377896697,2.180993581343162
0.0502375,4.725609377896697,2.203085447303411
0.05025,4.725609377896697,2.217813357943577
0.0502625,4.725609377896697,2.239905223903825
0.05027500000000001,4.725609377896697,2.258315112204041
0.05028750000000001,4.725609377896697,2.27672500050424
0.0503,4.725609377896697,2.295134888804447
0.0503125,4.729276230399835,2.317226754764695
0.050325,4.725609377896697,2.335636643064903
0.05033750000000001,4.725609377896697,2.354046531365118
0.05035000000000001,4.725609377896697,2.372456419665317
0.0503625,4.725609377896697,2.394548285625566
0.050375,4.743943640412387,2.412958173925773
0.0503875,4.747610492915525,2.435050039886022
0.05040000000000001,4.747610492915525,2.453459928186237
0.05041250000000001,4.747610492915525,2.471869816486436
0.050425,4.747610492915525,2.493961682446685
0.0504375,4.747610492915525,2.50868959308685
0.05045,4.747610492915525,2.530781459047099
0.05046250000000001,4.747610492915525,2.552873325007356
0.05047500000000001,4.747610492915525,2.571283213307555
0.0504875,4.747610492915525,2.593375079267803
0.0505,4.747610492915525,2.611784967568011
0.0505125,4.747610492915525,2.630194855868218
0.05052500000000001,4.747610492915523,2.652286721828475
0.05053750000000001,4.743943640412387,2.670696610128674
0.05055,4.747610492915525,2.692788476088922
0.0505625,4.747610492915525,2.707516386729088
0.050575,4.747610492915525,2.725926275029295
0.05058750000000001,4.747610492915525,2.748018140989552
0.05060000000000001,4.747610492915525,2.766428029289751
0.0506125,4.747610492915525,2.788519895249999
0.050625,4.747610492915525,2.806929783550207
0.0506375,4.747610492915525,2.825339671850414
0.05065000000000001,4.747610492915525,2.847431537810673
0.05066250000000001,4.747610492915525,2.869523403770911
0.050675,4.747610492915525,2.884251314411077
0.0506875,4.747610492915525,2.906343180371326
0.0507,4.751277345418663,2.924753068671533
0.05071250000000001,4.747610492915525,2.943162956971749
0.05072500000000001,4.747610492915525,2.961572845271947
0.0507375,4.747610492915525,2.979982733572154
0.05075,4.747610492915525,2.998392621872362
0.0507625,4.747610492915525,3.02048448783261
0.05077500000000001,4.747610492915525,3.038894376132826
0.05078750000000001,4.747610492915525,3.057304264433025
0.0508,4.747610492915525,3.079396130393273
0.0508125,4.747610492915525,3.094124041033439
0.050825,4.747610492915525,3.112533929333646
0.0508375,4.747610492915525,3.134625795293885
0.05085000000000001,4.747610492915525,3.156717661254143
0.0508625,4.747610492915525,3.171445571894309
0.050875,4.747610492915525,3.189855460194516
0.0508875,4.747610492915525,3.208265348494724
0.0509,4.747610492915525,3.226675236794923
0.05091250000000001,4.747610492915525,3.245085125095138
0.050925,4.747610492915525,3.267176991055387
0.0509375,4.747610492915525,3.285586879355594
0.05095,4.747610492915525,3.303996767655801
0.0509625,4.747610492915525,3.31872467829596
0.05097500000000001,4.751277345418663,3.340816544256215
0.05098750000000001,4.747610492915525,3.359226432556423
0.051,4.747610492915525,3.37763632085663
0.0510125,4.747610492915525,3.396046209156837
0.051025,4.751277345418662,3.414456097457036
0.05103750000000001,4.747610492915525,3.432865985757251
0.05105000000000001,4.747610492915525,3.447593896397417
0.0510625,4.747610492915525,3.466003784697624
0.051075,4.747610492915525,3.484413672997832
0.0510875,4.751277345418662,3.50282356129803
0.05110000000000001,4.747610492915525,3.521233449598246
0.05111250000000001,4.747610492915525,3.543325315558494
0.051125,4.747610492915525,3.55805322619866
0.0511375,4.747610492915525,3.576463114498867
0.05115,4.751277345418662,3.591191025139027
0.05116250000000001,4.747610492915525,3.613282891099282
0.05117500000000001,4.751277345418663,3.628010801739447
0.0511875,4.751277345418663,3.646420690039655
0.0512,4.751277345418663,3.664830578339862
0.0512125,4.751277345418663,3.679558488980021
0.05122500000000001,4.776945312940629,3.697968377280235
0.05123750000000001,4.791612722953182,3.712696287920401
0.05125,4.791612722953182,3.734788153880649
0.0512625,4.791612722953182,3.749516064520815
0.051275,4.791612722953182,3.764243975160974
0.05128750000000001,4.791612722953182,3.782653863461188
0.05130000000000001,4.787945870450043,3.801063751761395
0.0513125,4.787945870450043,3.812109684741519
0.051325,4.791612722953182,3.830519573041727
0.0513375,4.787945870450045,3.848929461341926
0.05135000000000001,4.791612722953182,3.867339349642141
0.05136250000000001,4.791612722953182,3.882067260282307
0.051375,4.787945870450043,3.896795170922473
0.0513875,4.791612722953182,3.911523081562638
0.0514,4.787945870450045,3.929932969862837
0.05141250000000001,4.791612722953182,3.948342858163053
0.05142500000000001,4.791612722953182,3.959388791143177
0.0514375,4.787945870450043,3.977798679443384
0.05145,4.791612722953182,3.99252659008355
0.0514625,4.791612722953182,4.010936478383749
0.05147500000000001,4.791612722953182,4.021982411363881
0.05148750000000001,4.791612722953182,4.040392299664088
0.0515,4.787945870450043,4.051438232644212
0.0515125,4.787945870450043,4.073530098604461
0.051525,4.791612722953182,4.084576031584586
0.05153750000000001,4.791612722953182,4.099303942224751
0.05155000000000001,4.791612722953182,4.117713830524958
0.0515625,4.787945870450043,4.132441741165124
0.051575,4.787945870450043,4.143487674145248
0.0515875,4.787945870450043,4.158215584785414
0.05160000000000001,4.787945870450043,4.176625473085622
0.05161250000000001,4.791612722953182,4.187671406065745
0.051625,4.791612722953182,4.202399316705912
0.0516375,4.787945870450043,4.217127227346078
0.05165,4.791612722953182,4.231855137986243
0.05166250000000001,4.791612722953182,4.242901070966376
0.05167500000000001,4.791612722953182,4.261310959266575
0.0516875,4.787945870450043,4.268674914586658
0.0517,4.791612722953182,4.287084802886865
0.0517125,4.787945870450043,4.30181271352703
0.05172500000000001,4.787945870450045,4.316540624167201
0.05173750000000001,4.791612722953182,4.32758655714732
0.05175,4.787945870450043,4.342314467787486
0.0517625,4.787945870450043,4.353360400767611
0.051775,4.787945870450043,4.368088311407776
0.05178750000000001,4.787945870450043,4.379134244387906
0.05180000000000001,4.787945870450043,4.390180177368025
0.0518125,4.791612722953182,4.40122611034815
0.051825,4.787945870450043,4.415954020988315
0.0518375,4.791612722953182,4.430681931628481
0.05185000000000001,4.787945870450043,4.441727864608611
0.05186250000000001,4.787945870450043,4.452773797588729
0.051875,4.787945870450043,4.467501708228895
0.0518875,4.791612722953182,4.478547641209019
0.0519,4.787945870450043,4.489593574189144
0.05191250000000001,4.791612722953182,4.504321484829314
0.05192500000000001,4.791612722953182,4.515367417809434
0.0519375,4.787945870450043,4.526413350789558
0.05195,4.787945870450043,4.537459283769683
0.0519625,4.791612722953182,4.548505216749807
0.05197500000000001,4.787945870450045,4.559551149729937
0.05198750000000001,4.791612722953182,4.570597082710055
0.052,4.787945870450043,4.58164301569018
0.0520125,4.787945870450043,4.592688948670304
0.052025,4.787945870450043,4.603734881650428
0.05203750000000001,4.79161272295318,4.611098836970516
0.05205000000000001,4.787945870450043,4.622144769950635
0.0520625,4.791612722953182,4.63319070293076
0.052075,4.784279017946905,4.640554658250843
0.0520875,4.787945870450043,4.651600591230967
0.05210000000000001,4.787945870450043,4.662646524211096
0.05211250000000001,4.787945870450043,4.673692457191216
0.052125,4.787945870450043,4.68473839017134
0.0521375,4.787945870450043,4.695784323151464
0.05215,4.791612722953182,4.699466300811506
0.05216250000000001,4.787945870450043,4.710512233791635
0.05217500000000001,4.787945870450043,4.721558166771755
0.0521875,4.791612722953182,4.728922122091837
0.0522,4.787945870450043,4.73628607741192
0.0522125,4.787945870450043,4.743650032732003
0.05222500000000001,4.79161272295318,4.754695965712131
0.05223750000000001,4.787945870450043,4.76205992103221
0.05225,4.787945870450043,4.773105854012335
0.0522625,4.787945870450043,4.776787831672376
0.052275,4.787945870450043,4.7878337646525
0.05228750000000001,4.787945870450045,4.795197719972586
0.05230000000000001,4.791612722953182,4.802561675292666
0.0523125,4.787945870450043,4.806243652952707
0.052325,4.787945870450043,4.817289585932832
0.0523375,4.787945870450043,4.824653541252915
0.05235000000000001,4.787945870450043,4.82833551891296
0.05236250000000001,4.787945870450043,4.835699474233039
0.052375,4.787945870450043,4.843063429553122
0.0523875,4.787945870450043,4.846745407213163
0.0524,4.787945870450043,4.857791340193288
0.0524125,4.787945870450043,4.865155295513367
0.05242500000000001,4.787945870450043,4.865155295513371
0.0524375,4.787945870450043,4.872519250833453
0.05245,4.787945870450043,4.879883206153536
0.0524625,4.787945870450043,4.887247161473619
0.052475,4.787945870450043,4.890929139133659
0.05248750000000001,4.791612722953182,4.898293094453743
0.0525,4.787945870450043,4.901975072113784
0.0525125,4.787945870450043,4.905657049773827
0.052525,4.791612722953182,4.913021005093909
0.0525375,4.787945870450045,4.916702982753949
0.05255000000000001,4.787945870450043,4.924066938074033
0.05256250000000001,4.787945870450043,4.927748915734075
0.052575,4.787945870450043,4.931430893394117
0.0525875,4.791612722953182,4.938794848714199
0.0526,4.787945870450045,4.938794848714199
0.05261250000000001,4.791612722953182,4.942476826374241
0.05262500000000001,4.787945870450043,4.946158804034282
0.0526375,4.787945870450043,4.949840781694324
0.05265,4.787945870450043,4.957204737014407
0.0526625,4.787945870450043,4.957204737014407
0.05267500000000001,4.791612722953182,4.960886714674448
0.05268750000000001,4.787945870450043,4.960886714674448
0.0527,4.787945870450043,4.96825066999453
0.0527125,4.787945870450043,4.96825066999453
0.052725,4.787945870450043,4.971932647654571
0.05273750000000001,4.791612722953182,4.975614625314614
0.05275000000000001,4.787945870450043,4.979296602974655
0.0527625,4.787945870450043,4.979296602974655
0.052775,4.787945870450043,4.979296602974655
0.0527875,4.787945870450043,4.982978580634695
0.05280000000000001,4.784279017946905,4.986660558294738
0.05281250000000001,4.787945870450043,4.986660558294738
0.052825,4.787945870450043,4.986660558294738
0.0528375,4.791612722953182,4.986660558294738
0.05285,4.787945870450045,4.990342535954778
0.05286250000000001,4.787945870450043,4.990342535954779
0.05287500000000001,4.787945870450043,4.990342535954779
0.0528875,4.787945870450043,4.990342535954779
0.0529,4.787945870450043,4.99402451361482
0.0529125,4.787945870450043,4.990342535954781
0.05292500000000001,4.787945870450043,4.990342535954779
0.05293750000000001,4.787945870450043,4.990342535954779
0.05295,4.787945870450043,4.990342535954779
0.0529625,4.787945870450043,4.990342535954779
0.052975,4.784279017946907,4.990342535954779
0.05298750000000001,4.784279017946905,4.990342535954779
0.05300000000000001,4.787945870450043,4.990342535954779
0.0530125,4.787945870450043,4.990342535954779
0.053025,4.784279017946905,4.990342535954779
0.0530375,4.787945870450041,4.98666055829474
0.05305000000000001,4.787945870450043,4.986660558294738
0.05306250000000001,4.787945870450043,4.982978580634697
0.053075,4.787945870450043,4.982978580634697
0.0530875,4.787945870450043,4.979296602974655
0.0531,4.787945870450043,4.979296602974655
0.05311250000000001,4.787945870450043,4.975614625314614
0.05312500000000001,4.791612722953182,4.971932647654572
0.0531375,4.787945870450043,4.96825066999453
0.05315,4.787945870450043,4.971932647654572
0.0531625,4.787945870450043,4.964568692334489
0.05317500000000001,4.787945870450043,4.964568692334489
0.05318750000000001,4.787945870450043,4.957204737014407
0.0532,4.787945870450043,4.957204737014407
0.0532125,4.784279017946905,4.949840781694324
0.053225,4.791612722953182,4.949840781694324
0.05323750000000001,4.787945870450043,4.946158804034279
0.05325000000000001,4.787945870450043,4.938794848714199
0.0532625,4.787945870450043,4.938794848714199
0.053275,4.787945870450043,4.935112871054158
0.0532875,4.791612722953182,4.927748915734075
0.05330000000000001,4.787945870450043,4.92406693807403
0.05331250000000001,4.787945870450043,4.916702982753951
0.053325,4.787945870450043,4.913021005093909
0.0533375,4.787945870450043,4.913021005093909
0.05335,4.784279017946905,4.905657049773827
0.05336250000000001,4.787945870450043,4.898293094453742
0.05337500000000001,4.787945870450043,4.894611116793702
0.0533875,4.787945870450043,4.887247161473619
0.0534,4.787945870450043,4.879883206153536
0.0534125,4.787945870450043,4.876201228493494
0.05342500000000001,4.787945870450043,4.86883727317341
0.05343750000000001,4.787945870450043,4.865155295513371
0.05345,4.787945870450043,4.857791340193288
0.0534625,4.791612722953182,4.850427384873205
0.053475,4.787945870450043,4.846745407213163
0.05348750000000001,4.787945870450045,4.835699474233037
0.05350000000000001,4.791612722953182,4.832017496572997
0.0535125,4.784279017946905,4.828335518912956
0.053525,4.787945870450043,4.820971563592873
0.0535375,4.787945870450043,4.813607608272791
0.05355000000000001,4.784279017946907,4.806243652952702
0.05356250000000001,4.787945870450043,4.795197719972583
0.053575,4.787945870450043,4.791515742312542
0.0535875,4.787945870450043,4.780469809332417
0.0536,4.787945870450043,4.773105854012335
0.05361250000000001,4.787945870450043,4.765741898692246
0.05362500000000001,4.787945870450043,4.754695965712127
0.0536375,4.787945870450043,4.751013988052086
0.05365,4.787945870450043,4.739968055071961
0.0536625,4.791612722953182,4.732604099751879
0.05367500000000001,4.787945870450045,4.721558166771751
0.05368750000000001,4.791612722953182,4.714194211451671
0.0537,4.791612722953182,4.706830256131589
