InputOutputData2Bit/InputOutput2Bit1HzPart1.csv

#Digilent WaveForms Oscilloscope Acquisition
#Device Name: Discovery2
#Serial Number: SN:210321B2E135
#Date Time: 2023-11-01 14:39:35.674
#Sample rate: 1600Hz
#Samples: 8192
#Trigger: Source: Channel 2 Type: Edge Condition: Rising Level: 1.83125 V Hyst.: Auto HoldOff: 100 ns
#Channel 1: Range: 2 V/div Offset: 0 V Attenuation: 1 X
#Channel 2: Range: 2 V/div Offset: 0 V Attenuation: 1 X
#Wavegen Channel 1: Enabled
#Mode: Simple
#Type: Sine
#Frequency: 1 Hz
#Period: 1 s
#Amplitude: 2.5 V
#Offset: 2.5 V
#Symmetry: 50 %
#Phase: 0 °
#Wavegen Channel 2: Enabled
#Mode: Simple
#Type: DC
#Offset: 5 V

Time (s),Channel 1 (V),Channel 2 (V)
-2.4596875,4.751277345418663,2.538145414367182
-2.4590625,4.751277345418663,2.527099481387062
-2.4584375,4.751277345418663,2.516053548406933
-2.4578125,4.751277345418663,2.505007615426809
-2.4571875,4.751277345418663,2.497643660106726
-2.4565625,4.751277345418663,2.486597727126598
-2.4559375,4.751277345418663,2.479233771806519
-2.4553125,4.751277345418663,2.468187838826394
-2.4546875,4.751277345418663,2.460823883506315
-2.4540625,4.751277345418663,2.449777950526184
-2.4534375,4.751277345418663,2.442413995206104
-2.4528125,4.751277345418663,2.43136806222598
-2.4521875,4.751277345418663,2.420322129245861
-2.4515625,4.751277345418663,2.412958173925773
-2.4509375,4.751277345418663,2.401912240945649
-2.4503125,4.732943082902973,2.390866307965524
-2.4496875,4.729276230399835,2.379820374985397
-2.4490625,4.729276230399835,2.372456419665317
-2.4484375,4.729276230399835,2.361410486685193
-2.4478125,4.729276230399835,2.354046531365114
-2.4471875,4.729276230399835,2.343000598384986
-2.4465625,4.729276230399835,2.331954665404861
-2.4459375,4.729276230399835,2.320908732424737
-2.4453125,4.729276230399835,2.313544777104649
-2.4446875,4.729276230399835,2.30249884412453
-2.4440625,4.729276230399835,2.291452911144405
-2.4434375,4.725609377896698,2.284088955824326
-2.4428125,4.725609377896697,2.273043022844198
-2.4421875,4.729276230399835,2.261997089864074
-2.4415625,4.729276230399835,2.254633134543991
-2.4409375,4.729276230399835,2.243587201563863
-2.4403125,4.729276230399835,2.236223246243784
-2.4396875,4.729276230399835,2.225177313263659
-2.4390625,4.729276230399835,2.21781335794358
-2.4384375,4.729276230399835,2.206767424963447
-2.4378125,4.729276230399835,2.195721491983328
-2.4371875,4.729276230399835,2.188357536663245
-2.4365625,4.729276230399835,2.177311603683126
-2.4359375,4.729276230399835,2.166265670702996
-2.4353125,4.729276230399835,2.155219737722872
-2.4346875,4.729276230399835,2.14785578240279
-2.4340625,4.729276230399835,2.13680984942266
-2.4334375,4.729276230399835,2.125763916442541
-2.4328125,4.729276230399835,2.118399961122458
-2.4321875,4.729276230399835,2.107354028142338
-2.4315625,4.729276230399835,2.096308095162209
-2.4309375,4.729276230399835,2.085262162182085
-2.4303125,4.729276230399835,2.077898206862002
-2.4296875,4.729276230399835,2.066852273881873
-2.4290625,4.729276230399835,2.055806340901754
-2.4284375,4.729276230399835,2.04844238558167
-2.4278125,4.729276230399835,2.037396452601551
-2.4271875,4.729276230399835,2.030032497281463
-2.4265625,4.729276230399835,2.018986564301339
-2.4259375,4.729276230399835,2.011622608981256
-2.4253125,4.729276230399835,2.000576676001128
-2.4246875,4.729276230399835,1.993212720681049
-2.4240625,4.729276230399835,1.982166787700924
-2.4234375,4.725609377896698,1.971120854720805
-2.4228125,4.725609377896698,1.963756899400712
-2.4221875,4.729276230399835,1.952710966420593
-2.4215625,4.729276230399835,1.94534701110051
-2.4209375,4.729276230399835,1.934301078120391
-2.4203125,4.729276230399835,1.923255145140261
-2.4196875,4.729276230399835,1.912209212160137
-2.4190625,4.729276230399835,1.904845256840054
-2.4184375,4.729276230399835,1.893799323859926
-2.4178125,4.729276230399835,1.886435368539847
-2.4171875,4.729276230399835,1.875389435559723
-2.4165625,4.729276230399835,1.868025480239643
-2.4159375,4.729276230399835,1.856979547259515
-2.4153125,4.729276230399835,1.849615591939433
-2.4146875,4.729276230399835,1.838569658959308
-2.4140625,4.729276230399835,1.827523725979179
-2.4134375,4.729276230399835,1.81647779299906
-2.4128125,4.729276230399835,1.809113837678977
-2.4121875,4.729276230399835,1.801749882358897
-2.4115625,4.729276230399835,1.79070394937877
-2.4109375,4.729276230399835,1.779658016398645
-2.4103125,4.729276230399835,1.772294061078562
-2.4096875,4.729276230399835,1.764930105758474
-2.4090625,4.729276230399835,1.753884172778355
-2.4084375,4.729276230399835,1.742838239798231
-2.4078125,4.729276230399835,1.735474284478151
-2.4071875,4.729276230399835,1.72442835149802
-2.4065625,4.729276230399835,1.717064396177941
-2.4059375,4.729276230399835,1.706018463197816
-2.4053125,4.729276230399835,1.698654507877737
-2.4046875,4.729276230399835,1.687608574897609
-2.4040625,4.729276230399835,1.676562641917485
-2.4034375,4.729276230399835,1.669198686597402
-2.4028125,4.729276230399835,1.661834731277314
-2.4021875,4.729276230399835,1.650788798297195
-2.4015625,4.729276230399835,1.63974286531707
-2.4009375,4.729276230399835,1.632378909996991
-2.4003125,4.729276230399835,1.621332977016863
-2.3996875,4.729276230399835,1.613969021696781
-2.3990625,4.729276230399835,1.602923088716656
-2.3984375,4.729276230399835,1.59924111105661
-2.3978125,4.729276230399835,1.58819517807649
-2.3971875,4.729276230399835,1.577149245096366
-2.3965625,4.729276230399835,1.569785289776287
-2.3959375,4.729276230399835,1.5624213344562
-2.3953125,4.729276230399835,1.551375401476076
-2.3946875,4.729276230399835,1.544011446155993
-2.3940625,4.729276230399835,1.536647490835905
-2.3934375,4.729276230399835,1.525601557855786
-2.3928125,4.729276230399835,1.518237602535703
-2.3921875,4.729276230399835,1.510873647215623
-2.3915625,4.729276230399835,1.499827714235491
-2.3909375,4.729276230399835,1.488781781255372
-2.3903125,4.729276230399835,1.481417825935289
-2.3896875,4.729276230399835,1.470371892955169
-2.3890625,4.729276230399835,1.463007937635082
-2.3884375,4.729276230399835,1.451962004654957
-2.3878125,4.729276230399835,1.444598049334874
-2.3871875,4.729276230399835,1.437234094014786
-2.3865625,4.729276230399835,1.426188161034667
-2.3859375,4.729276230399835,1.418824205714584
-2.3853125,4.729276230399835,1.407778272734465
-2.3846875,4.729276230399835,1.400414317414377
-2.3840625,4.729276230399835,1.389368384434253
-2.3834375,4.729276230399835,1.38200442911417
-2.3828125,4.729276230399835,1.374640473794084
-2.3821875,4.729276230399835,1.367276518474004
-2.3815625,4.729276230399835,1.35623058549388
-2.3809375,4.729276230399835,1.3488666301738
-2.3803125,4.729276230399835,1.337820697193673
-2.3796875,4.729276230399835,1.33045674187359
-2.3790625,4.729276230399835,1.319410808893466
-2.3784375,4.729276230399835,1.312046853573379
-2.3778125,4.729276230399835,1.3046828982533
-2.3771875,4.729276230399835,1.293636965273175
-2.3765625,4.729276230399835,1.286273009953096
-2.3759375,4.729276230399835,1.278909054633006
-2.3753125,4.729276230399835,1.271545099312927
-2.3746875,4.729276230399835,1.264181143992844
-2.3740625,4.729276230399835,1.253135211012725
-2.3734375,4.729276230399835,1.245771255692637
-2.3728125,4.729276230399835,1.234725322712512
-2.3721875,2.448493973447985,1.22736136739243
-2.3715625,0.1603780114898607,1.219997412072341
-2.3709375,0.1603780114898607,1.208951479092222
-2.3703125,0.1603780114898607,1.201587523772139
-2.3696875,0.1603780114898607,1.19422356845206
-2.3690625,0.1640448639929987,1.183177635471932
-2.3684375,0.1603780114898607,1.175813680151849
-2.3678125,0.1603780114898607,1.164767747171725
-2.3671875,0.1603780114898607,1.157403791851639
-2.3665625,0.1603780114898607,1.150039836531559
-2.3659375,0.1603780114898607,1.142675881211476
-2.3653125,0.1603780114898607,1.131629948231357
-2.3646875,0.1603780114898607,1.124265992911269
-2.3640625,0.1603780114898607,1.116902037591186
-2.3634375,0.1603780114898607,1.109538082271103
-2.3628125,0.1603780114898607,1.098492149290976
-2.3621875,0.1603780114898607,1.091128193970896
-2.3615625,0.1603780114898607,1.083764238650813
-2.3609375,0.1603780114898607,1.076400283330734
-2.3603125,0.1603780114898624,1.065354350350603
-2.3596875,0.1640448639929987,1.057990395030523
-2.3590625,0.1640448639929987,1.05062643971044
-2.3584375,0.1603780114898624,1.043262484390361
-2.3578125,0.1640448639929987,1.035898529070275
-2.3571875,0.1603780114898607,1.028534573750192
-2.3565625,0.1603780114898607,1.021170618430109
-2.3559375,0.1603780114898607,1.013806663110023
-2.3553125,0.1603780114898607,1.006442707789943
-2.3546875,0.1603780114898607,0.9990787524698602
-2.3540625,0.1603780114898607,0.9917147971497807
-2.3534375,0.1603780114898607,0.980668864169653
-2.3528125,0.1640448639929987,0.9733049088495702
-2.3521875,0.1603780114898607,0.9659409535294873
-2.3515625,0.1640448639929987,0.9585769982094011
-2.3509375,0.1640448639929987,0.9512130428893215
-2.3503125,0.1640448639929987,0.9438490875692387
-2.3496875,0.1640448639929987,0.9364851322491592
-2.3490625,0.1640448639929987,0.9291211769290729
-2.3484375,0.1640448639929987,0.9217572216089901
-2.3478125,0.1640448639929987,0.9107112886288657
-2.3471875,0.1603780114898624,0.9033473333087796
-2.3465625,0.1640448639929987,0.8959833779887
-2.3459375,0.1603780114898607,0.8886194226686172
-2.3453125,0.1603780114898607,0.8812554673485375
-2.3446875,0.1603780114898624,0.8738915120284481
-2.3440625,0.1640448639929987,0.8665275567083685
-2.3434375,0.1603780114898607,0.8591636013882856
-2.3428125,0.1603780114898607,0.851799646068206
-2.3421875,0.1640448639929987,0.8444356907481199
-2.3415625,0.1603780114898607,0.8370717354280369
-2.3409375,0.1603780114898607,0.8333897577679955
-2.3403125,0.1640448639929971,0.8260258024479094
-2.3396875,0.1603780114898607,0.8186618471278297
-2.3390625,0.1603780114898607,0.8112978918077469
-2.3384375,0.1603780114898607,0.8039339364876673
-2.3378125,0.1603780114898607,0.7965699811675812
-2.3371875,0.1640448639929987,0.7892060258474982
-2.3365625,0.1603780114898607,0.7818420705274154
-2.3359375,0.1603780114898607,0.7744781152073292
-2.3353125,0.1603780114898607,0.7671141598872496
-2.3346875,0.1603780114898607,0.7634321822272082
-2.3340625,0.1603780114898607,0.7523862492470889
-2.3334375,0.1603780114898607,0.745022293927001
-2.3328125,0.1603780114898607,0.7376583386069181
-2.3321875,0.1603780114898607,0.7339763609468767
-2.3315625,0.1640448639929971,0.7266124056267905
-2.3309375,0.1603780114898607,0.7192484503067109
-2.3303125,0.1603780114898607,0.7118844949866281
-2.3296875,0.1603780114898607,0.7045205396665485
-2.3290625,0.1603780114898607,0.697156584346459
-2.3284375,0.1603780114898607,0.6897926290263794
-2.3278125,0.1603780114898607,0.6824286737062966
-2.3271875,0.1603780114898607,0.675064718386217
-2.3265625,0.1603780114898607,0.6713827407261722
-2.3259375,0.1603780114898607,0.6640187854060894
-2.3253125,0.1603780114898607,0.6566548300860064
-2.3246875,0.1603780114898607,0.6492908747659203
-2.3240625,0.1603780114898607,0.6419269194458407
-2.3234375,0.1603780114898607,0.6345629641257579
-2.3228125,0.1603780114898607,0.6308809864657181
-2.3221875,0.1603780114898607,0.6235170311456335
-2.3215625,0.1603780114898607,0.6161530758255507
-2.3209375,0.1603780114898607,0.6087891205054677
-2.3203125,0.1603780114898607,0.6014251651853832
-2.3196875,0.1603780114898607,0.5977431875253435
-2.3190625,0.1603780114898607,0.5903792322052606
-2.3184375,0.1603780114898607,0.5866972545452208
-2.3178125,0.1603780114898607,0.5793332992251363
-2.3171875,0.1603780114898607,0.5719693439050534
-2.3165625,0.1603780114898607,0.568287366245012
-2.3159375,0.1603780114898607,0.5609234109249257
-2.3153125,0.1603780114898607,0.5535594556048462
-2.3146875,0.1640448639929987,0.5461955002847634
-2.3140625,0.1640448639929987,0.5425135226247235
-2.3134375,0.1640448639929987,0.5351495673046374
-2.3128125,0.1640448639929987,0.5314675896445976
-2.3121875,0.1603780114898607,0.5241036343245147
-2.3115625,0.1603780114898607,0.5167396790044352
-2.3109375,0.1640448639929987,0.5130577013443903
-2.3103125,0.1640448639929987,0.5056937460243075
-2.3096875,0.1640448639929987,0.4983297907042247
-2.3090625,0.1640448639929987,0.4946478130441799
-2.3084375,0.1640448639929987,0.4872838577241003
-2.3078125,0.1640448639929987,0.4836018800640589
-2.3071875,0.1640448639929987,0.4762379247439793
-2.3065625,0.1640448639929987,0.4688739694238931
-2.3059375,0.1640448639929987,0.4651919917638517
-2.3053125,0.1640448639929987,0.4578280364437688
-2.3046875,0.1640448639929987,0.454146058783724
-2.3040625,0.1640448639929987,0.4467821034636446
-2.3034375,0.1640448639929987,0.443100125803603
-2.3028125,0.1640448639929987,0.4357361704835235
-2.3021875,0.1603780114898607,0.4320541928234788
-2.3015625,0.1603780114898607,0.4246902375033959
-2.3009375,0.1603780114898607,0.4210082598433544
-2.3003125,0.1640448639929987,0.4136443045232699
-2.2996875,0.1640448639929987,0.4099623268632301
-2.2990625,0.1640448639929987,0.4025983715431473
-2.2984375,0.1640448639929987,0.3989163938831075
-2.2978125,0.1640448639929971,0.3915524385630212
-2.2971875,0.1603780114898607,0.3878704609029815
-2.2965625,0.1603780114898607,0.3805065055828987
-2.2959375,0.1603780114898607,0.3768245279228588
-2.2953125,0.1603780114898607,0.3731425502628157
-2.2946875,0.1603780114898607,0.3657785949427329
-2.2940625,0.1640448639929987,0.3620966172826914
-2.2934375,0.1603780114898607,0.3584146396226466
-2.2928125,0.1603780114898607,0.3510506843025671
-2.2921875,0.1603780114898607,0.3473687066425257
-2.2915625,0.1603780114898607,0.3400047513224461
-2.2909375,0.1603780114898607,0.3363227736624014
-2.2903125,0.1603780114898607,0.33264079600236
-2.2896875,0.1603780114898607,0.325276840682277
-2.2890625,0.1603780114898607,0.3215948630222339
-2.2884375,0.1603780114898607,0.3179128853621942
-2.2878125,0.1603780114898607,0.3105489300421113
-2.2871875,0.1603780114898607,0.3068669523820715
-2.2865625,0.1603780114898607,0.3031849747220284
-2.2859375,0.1603780114898607,0.299502997061987
-2.2853125,0.1603780114898607,0.2921390417419041
-2.2846875,0.1603780114898624,0.288457064081861
-2.2840625,0.1640448639929987,0.2847750864218213
-2.2834375,0.1603780114898607,0.2810931087617797
-2.2828125,0.1603780114898607,0.27741113110174
-2.2821875,0.1603780114898607,0.2737291534416936
-2.2815625,0.1603780114898607,0.2663651981216141
-2.2809375,0.1603780114898607,0.2626832204615726
-2.2803125,0.1603780114898607,0.2590012428015328
-2.2796875,0.1603780114898607,0.2553192651414897
-2.2790625,0.1603780114898607,0.2479553098214068
-2.2784375,0.1603780114898607,0.2442733321613654
-2.2778125,0.1603780114898624,0.2405913545013223
-2.2771875,0.1640448639929987,0.2369093768412825
-2.2765625,0.1640448639929987,0.2332273991812411
-2.2759375,0.1603780114898624,0.2295454215212013
-2.2753125,0.1603780114898607,0.2258634438611582
-2.2746875,0.1640448639929987,0.2221814662011168
-2.2740625,0.1603780114898607,0.2184994885410753
-2.2734375,0.1603780114898607,0.2111355332209908
-2.2728125,0.1603780114898607,0.207453555560951
-2.2721875,0.1603780114898607,0.2037715779009096
-2.2715625,0.1603780114898607,0.2000896002408698
-2.2709375,0.1603780114898607,0.1964076225808267
-2.2703125,0.1603780114898607,0.1927256449207853
-2.2696875,0.1603780114898607,0.1890436672607438
-2.2690625,0.1603780114898607,0.1853616896007007
-2.2684375,0.1603780114898607,0.1816797119406609
-2.2678125,0.1603780114898607,0.1779977342806195
-2.2671875,0.1603780114898607,0.1743157566205797
-2.2665625,0.1603780114898607,0.170633778960535
-2.2659375,0.1603780114898607,0.1669518013004952
-2.2653125,0.1603780114898607,0.1632698236404538
-2.2646875,0.1603780114898607,0.159587845980414
-2.2640625,0.1603780114898607,0.1559058683203709
-2.2634375,0.1603780114898607,0.1522238906603294
-2.2628125,0.1603780114898607,0.148541913000288
-2.2621875,0.1603780114898607,0.1448599353402449
-2.2615625,0.1603780114898607,0.1411779576802051
-2.2609375,0.1603780114898607,0.1411779576802051
-2.2603125,0.1603780114898607,0.1374959800201654
-2.2596875,0.1603780114898607,0.1338140023601223
-2.2590625,0.1603780114898607,0.1301320247000808
-2.2584375,0.1603780114898607,0.1264500470400394
-2.2578125,0.1603780114898607,0.1227680693799979
-2.2571875,0.1603780114898607,0.1227680693799979
-2.2565625,0.1603780114898607,0.1190860917199565
-2.2559375,0.1603780114898607,0.1154041140599167
-2.2553125,0.1603780114898607,0.1117221363998736
-2.2546875,0.1603780114898607,0.1117221363998736
-2.2540625,0.1603780114898607,0.1080401587398322
-2.2534375,0.1640448639929987,0.1043581810797891
-2.2528125,0.1640448639929987,0.1006762034197493
-2.2521875,0.1603780114898607,0.1006762034197493
-2.2515625,0.1603780114898607,0.09699422575970953
-2.2509375,0.1603780114898607,0.09331224809966474
-2.2503125,0.1603780114898607,0.08963027043962499
-2.2496875,0.1603780114898607,0.08963027043962499
-2.2490625,0.1603780114898607,0.08594829277958523
-2.2484375,0.1640448639929987,0.0822663151195421
-2.2478125,0.1640448639929987,0.0822663151195421
-2.2471875,0.1640448639929987,0.07858433745950066
-2.2465625,0.1603780114898607,0.07490235979945922
-2.2459375,0.1603780114898607,0.07490235979945922
-2.2453125,0.1640448639929987,0.07122038213941778
-2.2446875,0.1603780114898624,0.06753840447937803
-2.2440625,0.1603780114898607,0.06753840447937635
-2.2434375,0.1603780114898607,0.06385642681933491
-2.2428125,0.1603780114898607,0.06385642681933491
-2.2421875,0.1603780114898607,0.0601744491592918
-2.2415625,0.1603780114898607,0.05649247149925203
-2.2409375,0.1640448639929987,0.05649247149925203
-2.2403125,0.1603780114898624,0.05281049383921227
-2.2396875,0.1603780114898607,0.0528104938392106
-2.2390625,0.1603780114898607,0.04912851617916916
-2.2384375,0.1603780114898607,0.04912851617916916
-2.2378125,0.1603780114898607,0.04544653851912605
-2.2371875,0.1603780114898607,0.04176456085908628
-2.2365625,0.1603780114898607,0.04176456085908628
-2.2359375,0.1603780114898607,0.04176456085908628
-2.2353125,0.1603780114898607,0.03808258319904317
-2.2346875,0.1603780114898607,0.03440060553900341
-2.2340625,0.1603780114898607,0.03440060553900341
-2.2334375,0.1603780114898607,0.03440060553900341
-2.2328125,0.1603780114898607,0.03071862787896196
-2.2321875,0.1603780114898607,0.03071862787896196
-2.2315625,0.1603780114898607,0.02703665021892053
-2.2309375,0.1603780114898607,0.02703665021892053
-2.2303125,0.1603780114898607,0.02703665021892053
-2.2296875,0.1603780114898607,0.02335467255887909
-2.2290625,0.1603780114898607,0.02335467255887909
-2.2284375,0.1603780114898607,0.02335467255887909
-2.2278125,0.1603780114898607,0.01967269489883765
-2.2271875,0.1603780114898607,0.01967269489883765
-2.2265625,0.1603780114898607,0.01967269489883597
-2.2259375,0.1603780114898607,0.01599071723879621
-2.2253125,0.1640448639929987,0.01230873957875477
-2.2246875,0.1603780114898624,0.01230873957875477
-2.2240625,0.1603780114898607,0.01230873957875477
-2.2234375,0.1640448639929987,0.01230873957875477
-2.2228125,0.1603780114898607,0.01230873957875477
-2.2221875,0.1640448639929987,0.008626761918713333
-2.2215625,0.1640448639929987,0.008626761918713333
-2.2209375,0.1640448639929987,0.008626761918713333
-2.2203125,0.1640448639929987,0.008626761918713333
-2.2196875,0.1640448639929971,0.008626761918711659
-2.2190625,0.1603780114898607,0.004944784258671894
-2.2184375,0.1640448639929987,0.004944784258671894
-2.2178125,0.1640448639929987,0.004944784258671894
-2.2171875,0.1603780114898607,0.004944784258671894
-2.2165625,0.1603780114898607,0.001262806598630456
-2.2159375,0.1603780114898607,0.001262806598630456
-2.2153125,0.1603780114898607,0.001262806598630456
-2.2146875,0.1603780114898607,0.001262806598630456
-2.2140625,0.1603780114898607,0.001262806598630456
-2.2134375,0.1603780114898607,0.001262806598630456
-2.2128125,0.1603780114898607,0.001262806598630456
-2.2121875,0.1603780114898607,0.001262806598630456
-2.2115625,0.1603780114898607,0.001262806598630456
-2.2109375,0.1603780114898607,0.001262806598630456
-2.2103125,0.1603780114898607,0.001262806598630456
